{
    "defaultSeverity": "error",
    "extends": ["tslint:latest", "tslint-react"],
    "jsRules": {},
    "rules": {
      "quotemark": [true, "double", "jsx-double"],
      "interface-name": [true, "never-prefix"],
      "object-literal-sort-keys": false,
      "member-access": [
        false        
      ]
    },
    "rulesDirectory": []
}
